<?xml version="1.0" encoding="utf-8"?>
<!-- Generator: Adobe Illustrator 19.0.0, SVG Export Plug-In . SVG Version: 6.00 Build 0)  -->
<svg version="1.1" id="Isolation_Mode" xmlns="http://www.w3.org/2000/svg" xmlns:xlink="http://www.w3.org/1999/xlink" x="0px"
	 y="0px" width="16.6px" height="16.6px" viewBox="0 0 16.6 16.6" style="enable-background:new 0 0 16.6 16.6;"
	 xml:space="preserve">
<path d="M0,0h2.8v16.6H0V0z M4.8,8.3l11.8,8.3V0L4.8,8.3z"/>
</svg>
